VCD files/PE_testbench.vcd
$date
     May 01, 2023       00:49:30
$end

$version
 SystemC 2.3.3-Accellera --- Apr 23 2023 04:01:11
$end

$timescale
     1 ps
$end

$scope module SystemC $end
$var wire    1  aaaaa  clk       $end
$var wire    1  aaaab  rst       $end
$var wire    1  aaaac  start       $end
$var wire    1  aaaad  busyPE       $end
$var wire    8  aaaae  Din [7:0]  $end
$var wire    8  aaaaf  Dout [7:0]  $end
$var wire    8  aaaag  Win [7:0]  $end
$var wire    8  aaaah  Wout [7:0]  $end
$var wire   24  aaaai  Sin [23:0]  $end
$var wire   24  aaaaj  Sout [23:0]  $end
$upscope $end
$enddefinitions  $end

$comment
All initial values are dumped below at time 0 sec = 0 timescale units.
$end

$dumpvars
0aaaaa
0aaaab
0aaaac
0aaaad
bXXXXXXXX aaaae
bXXXXXXXX aaaaf
bXXXXXXXX aaaag
bXXXXXXXX aaaah
b0 aaaai
bXXXXXXXXXXXXXXXXXXXXXXXX aaaaj
$end

#2000
1aaaab
b0 aaaaf
b0 aaaah
b0 aaaaj

#7000
0aaaab

#10000
1aaaaa

#20000
0aaaaa

#30000
1aaaaa

#40000
0aaaaa

#42000
1aaaac
b10 aaaag

#50000
1aaaaa

#60000
0aaaaa

#62000
b100 aaaag

#70000
1aaaaa
b100 aaaah

#80000
0aaaaa

#82000
0aaaac
b10 aaaae

#90000
1aaaaa

#100000
0aaaaa

#110000
1aaaaa
b10 aaaaf

#120000
0aaaaa

#122000
1aaaad
b1000 aaaae

#130000
1aaaaa
b1000 aaaaf

#140000
0aaaaa

#142000
b10000 aaaae
b10 aaaai

#150000
1aaaaa
b10000 aaaaf
b100010 aaaaj

#160000
0aaaaa

#162000
b11 aaaae
b111 aaaai

#170000
1aaaaa
b11 aaaaf
b1000111 aaaaj

#180000
0aaaaa

#182000
0aaaad

#190000
1aaaaa
b10011 aaaaj

#200000
0aaaaa

#210000
1aaaaa
b0 aaaaf
b0 aaaah
b0 aaaaj

