VCD files/reg_test.vcd
$date
     May 01, 2023       00:49:30
$end

$version
 SystemC 2.3.3-Accellera --- Apr 23 2023 04:01:11
$end

$timescale
     1 ps
$end

$scope module SystemC $end
$var wire    1  aaaaa  clk       $end
$var wire    1  aaaab  rst       $end
$var wire    8  aaaac  input [7:0]  $end
$var wire    8  aaaad  par_in0 [7:0]  $end
$var wire    8  aaaae  par_in1 [7:0]  $end
$var wire    8  aaaaf  par_in2 [7:0]  $end
$var wire    8  aaaag  par_in3 [7:0]  $end
$var wire    8  aaaah  par_out0 [7:0]  $end
$var wire    8  aaaai  par_out1 [7:0]  $end
$var wire    8  aaaaj  par_out2 [7:0]  $end
$var wire    8  aaaak  par_out3 [7:0]  $end
$var wire    1  aaaal  load_signal       $end
$var wire    1  aaaam  shift_signal       $end
$upscope $end
$enddefinitions  $end

$comment
All initial values are dumped below at time 0 sec = 0 timescale units.
$end

$dumpvars
0aaaaa
0aaaab
b0 aaaac
b11111110 aaaad
b11111101 aaaae
b11111011 aaaaf
b11110111 aaaag
bXXXXXXXX aaaah
bXXXXXXXX aaaai
bXXXXXXXX aaaaj
bXXXXXXXX aaaak
xaaaal
xaaaam
$end

#2000
1aaaab
b0 aaaah
b0 aaaai
b0 aaaaj
b0 aaaak

#7000
0aaaab

#10000
1aaaaa

#20000
0aaaaa
1aaaal

#30000
1aaaaa
b11111110 aaaah
b11111101 aaaai
b11111011 aaaaj
b11110111 aaaak

#40000
0aaaaa
0aaaal
1aaaam

#50000
1aaaaa
b0 aaaah
b11111110 aaaai
b11111101 aaaaj
b11111011 aaaak

#60000
0aaaaa

#70000
1aaaaa
b0 aaaai
b11111110 aaaaj
b11111101 aaaak

#80000
0aaaaa

#90000
1aaaaa
b0 aaaaj
b11111110 aaaak

#100000
0aaaaa

#110000
1aaaaa
b0 aaaak

