VCD files/RTL_mult_test3.vcd
$date
     May 01, 2023       00:49:30
$end

$version
 SystemC 2.3.3-Accellera --- Apr 23 2023 04:01:11
$end

$timescale
     1 ps
$end

$scope module SystemC $end
$var wire    1  aaaaa  clk       $end
$var wire    1  aaaab  rst       $end
$var wire    1  aaaac  start       $end
$var wire    1  aaaad  done       $end
$var wire   24  aaaae  result_11 [23:0]  $end
$var wire   24  aaaaf  result_12 [23:0]  $end
$var wire   24  aaaag  result_21 [23:0]  $end
$var wire   24  aaaah  result_22 [23:0]  $end
$upscope $end
$enddefinitions  $end

$comment
All initial values are dumped below at time 0 sec = 0 timescale units.
$end

$dumpvars
0aaaaa
0aaaab
0aaaac
1aaaad
bXXXXXXXXXXXXXXXXXXXXXXXX aaaae
bXXXXXXXXXXXXXXXXXXXXXXXX aaaaf
bXXXXXXXXXXXXXXXXXXXXXXXX aaaag
bXXXXXXXXXXXXXXXXXXXXXXXX aaaah
$end

#2000
1aaaab
b0 aaaae
b0 aaaaf
b0 aaaag
b0 aaaah

#7000
0aaaab

#10000
1aaaaa

#20000
0aaaaa
1aaaac

#30000
1aaaaa
0aaaad

#40000
0aaaaa
0aaaac

#50000
1aaaaa

#60000
0aaaaa

#70000
1aaaaa

#80000
0aaaaa

#90000
1aaaaa

#100000
0aaaaa

#110000
1aaaaa

#120000
0aaaaa

#130000
1aaaaa

#140000
0aaaaa

#150000
1aaaaa

#160000
0aaaaa

#170000
1aaaaa

#180000
0aaaaa

#190000
1aaaaa
b1010000 aaaaf
b10100010 aaaah

#200000
0aaaaa

#210000
1aaaaa
b1010000 aaaae
b1110001 aaaaf
b10100010 aaaag
b11011000 aaaah

#220000
0aaaaa

#230000
1aaaaa

#240000
0aaaaa

#250000
1aaaaa
b0 aaaae
b0 aaaaf
b0 aaaag
b0 aaaah

#260000
0aaaaa

#270000
1aaaaa

#280000
0aaaaa

#290000
1aaaaa

#300000
0aaaaa

#310000
1aaaaa

#320000
0aaaaa

#330000
1aaaaa

#340000
0aaaaa

#350000
1aaaaa

#360000
0aaaaa

#370000
1aaaaa

#380000
0aaaaa

#390000
1aaaaa
b1111111 aaaaf
b11010101 aaaah

#400000
0aaaaa

#410000
1aaaaa
b1111111 aaaae
b1000110 aaaaf
b11010101 aaaag
b1100011 aaaah

#420000
0aaaaa

#430000
1aaaaa
1aaaad

