VCD files/RTL_mult_test1.vcd
$date
     May 01, 2023       00:49:30
$end

$version
 SystemC 2.3.3-Accellera --- Apr 23 2023 04:01:11
$end

$timescale
     1 ps
$end

$scope module SystemC $end
$var wire    1  aaaaa  clk       $end
$var wire    1  aaaab  rst       $end
$var wire    1  aaaac  start       $end
$var wire    1  aaaad  done       $end
$var wire   24  aaaae  result_11 [23:0]  $end
$var wire   24  aaaaf  result_12 [23:0]  $end
$var wire   24  aaaag  result_13 [23:0]  $end
$var wire   24  aaaah  result_21 [23:0]  $end
$var wire   24  aaaai  result_22 [23:0]  $end
$var wire   24  aaaaj  result_23 [23:0]  $end
$var wire   24  aaaak  result_31 [23:0]  $end
$var wire   24  aaaal  result_32 [23:0]  $end
$var wire   24  aaaam  result_33 [23:0]  $end
$upscope $end
$enddefinitions  $end

$comment
All initial values are dumped below at time 0 sec = 0 timescale units.
$end

$dumpvars
0aaaaa
0aaaab
0aaaac
1aaaad
bXXXXXXXXXXXXXXXXXXXXXXXX aaaae
bXXXXXXXXXXXXXXXXXXXXXXXX aaaaf
bXXXXXXXXXXXXXXXXXXXXXXXX aaaag
bXXXXXXXXXXXXXXXXXXXXXXXX aaaah
bXXXXXXXXXXXXXXXXXXXXXXXX aaaai
bXXXXXXXXXXXXXXXXXXXXXXXX aaaaj
bXXXXXXXXXXXXXXXXXXXXXXXX aaaak
bXXXXXXXXXXXXXXXXXXXXXXXX aaaal
bXXXXXXXXXXXXXXXXXXXXXXXX aaaam
$end

#2000
1aaaab
b0 aaaae
b0 aaaaf
b0 aaaag
b0 aaaah
b0 aaaai
b0 aaaaj
b0 aaaak
b0 aaaal
b0 aaaam

#7000
0aaaab

#10000
1aaaaa

#20000
0aaaaa
1aaaac

#30000
1aaaaa
0aaaad

#40000
0aaaaa
0aaaac

#50000
1aaaaa

#60000
0aaaaa

#70000
1aaaaa

#80000
0aaaaa

#90000
1aaaaa

#100000
0aaaaa

#110000
1aaaaa

#120000
0aaaaa

#130000
1aaaaa

#140000
0aaaaa

#150000
1aaaaa

#160000
0aaaaa

#170000
1aaaaa

#180000
0aaaaa

#190000
1aaaaa

#200000
0aaaaa

#210000
1aaaaa

#220000
0aaaaa

#230000
1aaaaa

#240000
0aaaaa

#250000
1aaaaa
b101100 aaaag
b10101100 aaaaj
b110000 aaaam

#260000
0aaaaa

#270000
1aaaaa
b101100 aaaaf
b11010 aaaag
b10101100 aaaai
b1110110 aaaaj
b110000 aaaal
b100000 aaaam

#280000
0aaaaa

#290000
1aaaaa
b101100 aaaae
b11010 aaaaf
b110010 aaaag
b10101100 aaaah
b1110110 aaaai
b1101000 aaaaj
b110000 aaaak
b100000 aaaal
b100100 aaaam

#300000
0aaaaa

#310000
1aaaaa
1aaaad

